{
    "replace":false,
    "values":[
        "minecraft:chainmail_leggings",
        "minecraft:iron_leggings",
        "minecraft:golden_leggings",
        "minecraft:netherite_leggings",
        "minecraft:diamond_leggings",
        "minecraft:leather_leggings"
    ]
}